// Jest Snapshot v1, https://goo.gl/fbAQLP

exports[`screens/TodoDetailScreen should render ActivityIndicator while loading 1`] = `<Component />`;

exports[`screens/TodoDetailScreen should render Todo Detail with Todo data 1`] = `
<Component
  style={
    Object {
      "backgroundColor": "#ffffff",
      "flex": 1,
      "justifyContent": "space-around",
    }
  }
>
  <Label
    label="bar"
  />
  <Component
    style={
      Object {
        "padding": 15,
      }
    }
  >
    <Button
      onPress={[Function]}
    >
      Mark as done
    </Button>
  </Component>
</Component>
`;

exports[`screens/TodoDetailScreen should render error Label with error 1`] = `
<Label
  isError={true}
  text="An unexpected error occurred"
/>
`;

exports[`screens/TodoDetailScreen should render error Label without data 1`] = `
<Label
  isError={true}
  text="Todo does not have a detail"
/>
`;
