// Jest Snapshot v1, https://goo.gl/fbAQLP

exports[`should render error Label component with isError prop 1`] = `
<Component>
  <Component
    style={
      Array [
        Object {
          "fontSize": 24,
          "fontWeight": "700",
          "paddingHorizontal": 15,
          "paddingVertical": 10,
        },
        Object {
          "color": "red",
        },
      ]
    }
  />
</Component>
`;

exports[`should render normal Label component 1`] = `
<Component>
  <Component
    style={
      Array [
        Object {
          "fontSize": 24,
          "fontWeight": "700",
          "paddingHorizontal": 15,
          "paddingVertical": 10,
        },
        Object {
          "color": null,
        },
      ]
    }
  />
</Component>
`;
